{
  "$schema": "https://schema.management.azure.com/schemas/2015-01-01/deploymentTemplate.json#",
  "contentVersion": "1.0.0.0",
  "parameters": {
    "adminUsername": {
      "type": "string",
      "metadata": {
        "description": "Admin username used when provisioning virtual machines"
      }
    },
    "adminPassword": {
      "type": "securestring",
      "metadata": {
        "description": "Admin password used when provisioning virtual machines"
      }
    },
    "location": {
      "type": "string",
      "allowedValues": [
        "ResourceGroup",
        "West US",
        "East US",
        "East US 2",
        "Central US",
        "South Central US",
        "North Central US",
        "East Asia",
        "Southeast Asia",
        "West Europe",
        "North Europe"
      ],
      "defaultValue": "ResourceGroup",
      "metadata": {
        "description": "Location where resources will be provisioned.  A value of 'ResourceGroup' will deploy the resource to the same location of the resource group the resources are provisioned into"
      }
    },
    "locationCode": {
      "type": "string",
      "allowedValues": [
        "u",
        "e",
        "a"
      ],
      "defaultValue": "e",
      "metadata": {
        "description": "Location code to be embedded into resources"
      }
    },
    "platformVersion": {
      "type": "string",
      "metadata": {
        "description": "Platform version, like v2, v3, etc..."
      }
    },
    "virtualNetworkName": {
      "type": "string",
      "defaultValue": "esvnet",
      "metadata": {
        "description": "Virtual Network"
      }
    },
    "OS": {
      "type": "string",
      "defaultValue": "ubuntu",
      "allowedValues": [
        "ubuntu",
        "windows"
      ],
      "metadata": {
        "description": "The operating system to deploy Elasticsearch cluster on"
      }
    },
    "loadBalancerType": {
      "type": "string",
      "defaultValue": "internal",
      "allowedValues": [
        "internal",
        "external"
      ],
      "metadata": {
        "description": "Setup the load balancer internal or external.  If you are setting up Elasticsearch on an external endpoint you will need to secure your nodes with a product like Elasticsearch Shield"
      }
    },
    "jumpbox": {
      "type": "string",
      "defaultValue": "Yes",
      "allowedValues": [
        "Yes",
        "No"
      ],
      "metadata": {
        "description": "Optionally add a virtual machine to the deployment which you can use to connect and manage virtual machines on the internal network"
      }
    },
    "vmClientNodeCount": {
      "type": "int",
      "defaultValue": 0,
      "allowedValues": [
        0,
        1,
        2,
        3,
        4
      ],
      "metadata": {
        "description": "Number of Elasticsearch client nodes to provision (Setting this to zero puts the data nodes on the load balancer)"
      }
    },
    "vmSizeClientNodes": {
      "type": "string",
      "defaultValue": "Standard_A1",
      "metadata": {
        "description": "Size of the Elasticsearch cluster client nodes"
      }
    },
    "vmSizeMasterNodes": {
      "type": "string",
      "defaultValue": "Standard_A0",
      "metadata": {
        "description": "Size of the Elasticsearch master nodes"
      }
    },
    "vmSizeDataNodes": {
      "type": "string",
      "defaultValue": "Standard_D2",
      "allowedValues": [
        "Standard_D1",
        "Standard_D2",
        "Standard_D3",
        "Standard_D4",
        "Standard_A2",
        "Standard_A3",
        "Standard_A4",
        "Standard_A7",
        "Standard_DS1",
        "Standard_DS2",
        "Standard_DS3",
        "Standard_DS4",
        "Standard_DS13"
      ],
      "metadata": {
        "description": "Size of the Elasticsearch data nodes"
      }
    },
    "vmDataNodeCount": {
      "type": "int",
      "defaultValue": 5,
      "metadata": {
        "description": "Number of Elasticsearch data nodes"
      }
    },
    "esClusterName": {
      "type": "string",
      "defaultValue": "elasticsearch",
      "metadata": {
        "description": "The name of the Elasticsearch cluster"
      }
    },
    "esVersion": {
      "type": "string",
      "defaultValue": "1.5.2",
      "allowedValues": [
        "2.1.0",
        "2.0.1",
        "1.7.3",
        "1.5.2"
      ],
      "metadata": {
        "description": "Elasticsearch version to install"
      }
    },
    "marvel": {
      "type":"string",
      "defaultValue":"no",
      "allowedValues": [
        "yes",
        "no"
      ],
      "metadata": {
        "description": "Install the marvel agenet in the cluster"
      }
    },
    "kibana":{
      "type":"string",
      "defaultValue":"no",
      "allowedValues": [
        "yes",
        "no"
      ],
      "metadata": {
        "description": "Provision a machine with Kibana on it"
      }
    },
    "elasticBlobStorageKey": {
      "type":"string",
      "metadata": {
        "description": "Blob Storage key to make backups in ElasticSearch"
      }
    },
    "dbAdminUsername": {
      "type": "string",
      "defaultValue": "phme",
      "metadata": {
        "description": "Virtual machine administrator username"
      }
    },
    "dbAdminPassword": {
      "type": "securestring",
      "metadata": {
        "description": "Virtual machine administrator password"
      }
    },
    "tshirtSize": {
      "type": "string",
      "defaultValue": "Small",
      "allowedValues": [
        "Small",
        "Medium",
        "Large",
        "XLarge"
      ],
      "metadata": {
        "description": "T-shirt size of the PostgreSQL deployment"
      }
    },
    "replicatorPassword": {
      "type": "securestring",
      "metadata": {
        "description": "The replication password used for PostgreSQL streaming replication"
      }
    },
    "storagePhotoAccountName": {
      "type": "string"
    },
    "storageBackupAccountName": {
      "type": "string"
    },
    "web_image_uri": {
      "type": "string",
      "metadata": {
        "description": "Image for web instances, captured at portal"
      }
    },
    "worker_image_uri": {
      "type": "string",
      "metadata": {
        "description": "Image for worker instances, captured at portal"
      }
    },
    "number_webs": {
      "type": "int",
      "metadata": {
        "description": "Number of web instances"
      }
    },
    "number_workers": {
      "type": "int",
      "metadata": {
        "description": "Number of worker instances"
      }
    },
    "vmSizeWebs": {
      "type": "string",
      "metadata": {
        "description": "Webs instance type: D1, D3, etc..."
      }
    },
    "vmSizeWorkers": {
      "type": "string",
      "metadata": {
        "description": "Workers instance type: D1, D3, etc..."
      }
    },
    "env": {
      "type": "string",
      "metadata": {
        "description": "Two letters for environment: de, li, etc..."
      }
    },
    "graylog_image_uri": {
      "type": "string",
      "metadata": {
        "description": "Instance image_uri"
      }
    },
    "graylog_storage_account": {
      "type": "string",
      "metadata": {
        "description": "GrayLog storage account"
      }
    },
    "GIT_PRIVATE_KEY": {"type": "securestring"},
    "GIT_PUBLIC_KEY": {"type": "securestring"},
    "NEWRELIC_LICENSE_KEY": {"type": "securestring"},
    "PICKIT_POSTGRESQL_USER": {"type": "securestring"},
    "PICKIT_POSTGRESQL_DATABASE":  {"type": "securestring"},
    "PICKIT_POSTGRESQL_HOST":  {"type": "securestring"},
    "PICKIT_POSTGRESQL_PORT":  {"type": "securestring"},
    "PICKIT_POSTGRESQL_PASSWORD":  {"type": "securestring"},
    "PICKIT_POSTGRESQL_REPLICA_USER":  {"type": "securestring"},
    "PICKIT_POSTGRESQL_REPLICA_DATABASE":  {"type": "securestring"},
    "PICKIT_POSTGRESQL_REPLICA_HOST":  {"type": "securestring"},
    "PICKIT_POSTGRESQL_REPLICA_PORT":  {"type": "securestring"},
    "PICKIT_POSTGRESQL_REPLICA_PASSWORD":  {"type": "securestring"},
    "PICKIT_AZURE_ACCOUNT_NAME":  {"type": "securestring"},
    "PICKIT_AZURE_ACCOUNT_KEY":  {"type": "securestring"},
    "PICKIT_AZURE_PUBLIC_CONTAINER":  {"type": "securestring"},
    "PICKIT_AZURE_PRIVATE_CONTAINER":  {"type": "securestring"},
    "PICKIT_EMAIL_HOST_USER":  {"type": "securestring"},
    "PICKIT_EMAIL_HOST_PASSWORD":  {"type": "securestring"},
    "PICKIT_EMAIL_PORT":  {"type": "securestring"},
    "PICKIT_TWITTER_CONSUMER_KEY":  {"type": "securestring"},
    "PICKIT_TWITTER_CONSUMER_SECRET":  {"type": "securestring"},
    "PICKIT_FACEBOOK_APP_ID":  {"type": "securestring"},
    "PICKIT_FACEBOOK_API_SECRET":  {"type": "securestring"},
    "PICKIT_LINKEDIN_CONSUMER_KEY":  {"type": "securestring"},
    "PICKIT_LINKEDIN_CONSUMER_SECRET":  {"type": "securestring"},
    "PICKIT_GOOGLE_OAUTH2_CLIENT_ID":  {"type": "securestring"},
    "PICKIT_GOOGLE_OAUTH2_CLIENT_SECRET":  {"type": "securestring"},
    "PICKIT_PAYPAL_APPLICATION_ID":  {"type": "securestring"},
    "PICKIT_PAYPAL_USERID":  {"type": "securestring"},
    "PICKIT_PAYPAL_PASSWORD":  {"type": "securestring"},
    "PICKIT_PAYPAL_SIGNATURE":  {"type": "securestring"},
    "PICKIT_PAYEX_ENCRYPTION_KEY":  {"type": "securestring"},
    "PICKIT_PAYEX_MERCHANT_ACCOUNT":  {"type": "securestring"},
    "PICKIT_CELERY_BROKER_URL":  {"type": "securestring"},
    "PICKIT_CROWD_FLOWER_API_KEY_LOCAL":  {"type": "securestring"},
    "PICKIT_CROWD_FLOWER_API_KEY":  {"type": "securestring"},
    "PICKIT_REDIS_URL":  {"type": "securestring"},
    "PICKIT_MIXPANEL_TOKEN":  {"type": "securestring"},
    "PICKIT_POWERPOINT_USER":  {"type": "securestring"},
    "PICKIT_ORBEUS_API_KEY":  {"type": "securestring"},
    "PICKIT_ORBEUS_API_SECRET":  {"type": "securestring"},
    "PICKIT_SHUTTERSTOCK_API_CLIENT":  {"type": "securestring"},
    "PICKIT_SHUTTERSTOCK_API_SECRET":  {"type": "securestring"},
    "PICKIT_STRIPE_PUBLIC_KEY_SANDBOX":  {"type": "securestring"},
    "PICKIT_STRIPE_SECRET_KEY_SANDBOX":  {"type": "securestring"},
    "PICKIT_STRIPE_PUBLIC_KEY":  {"type": "securestring"},
    "PICKIT_STRIPE_SECRET_KEY":  {"type": "securestring"},
    "PICKIT_MOBILE_SERVICE_TOKEN":  {"type": "securestring"},
    "PICKIT_BING_TRANSLATE_CLIENT_ID":  {"type": "securestring"},
    "PICKIT_BING_TRANSLATE_CLIENT_SECRET":  {"type": "securestring"},
    "PICKIT_NEW_RELIC_ACCOUNT_ID":  {"type": "securestring"},
    "PICKIT_NEW_RELIC_INSIGHTS_KEY":  {"type": "securestring"},
    "PICKIT_AZURE_MODERATION_SUBSCRIPTION_ID":  {"type": "securestring"},
    "PICKIT_VATLAYER_ACCESS_KEY":  {"type": "securestring"},
    "PICKIT_VATLAYER_ACCESS_DEV_KEY":  {"type": "securestring"},
    "PICKIT_VISION_API_KEY":  {"type": "securestring"},
    "PICKIT_CMS_POSTGRESQL_USER":  {"type": "securestring"},
    "PICKIT_CMS_POSTGRESQL_DATABASE":  {"type": "securestring"},
    "PICKIT_CMS_POSTGRESQL_HOST":  {"type": "securestring"},
    "PICKIT_CMS_POSTGRESQL_PORT":  {"type": "securestring"},
    "PICKIT_CMS_POSTGRESQL_PASSWORD":  {"type": "securestring"},
    "PICKIT_CMS_POSTGRESQL_REPLICA_USER":  {"type": "securestring"},
    "PICKIT_CMS_POSTGRESQL_REPLICA_DATABASE":  {"type": "securestring"},
    "PICKIT_CMS_POSTGRESQL_REPLICA_HOST":  {"type": "securestring"},
    "PICKIT_CMS_POSTGRESQL_REPLICA_PORT":  {"type": "securestring"},
    "PICKIT_CMS_POSTGRESQL_REPLICA_PASSWORD":  {"type": "securestring"},
    "PICKIT_ENV":  {"type": "securestring"},
    "DJANGO_SETTINGS_MODULE": {"type": "securestring"},
    "CLARIFAI_APP_ID": {"type": "securestring"},
    "CLARIFAI_APP_SECRET": {"type": "securestring"},
    "SSL_CERTIFICATE_CRT": {"type": "securestring"},
    "SSL_CERTIFICATE_KEY": {"type": "securestring"},
    "PICKIT_INSIGHTS_KEY": {"type": "securestring"},
    "FORTNOX_SECRET_KEY": {"type": "securestring"},
    "FORTNOX_ACCESS_TOKEN": {"type": "securestring"},
    "PICKIT_P4B_MS_GRAPH_CLIENT_ID": {"type": "securestring"},
    "PICKIT_P4B_MS_GRAPH_CLIENT_SECRET": {"type": "securestring"},
    "PICKIT_P4B_MS_GRAPH_REDIRECT_URI": {"type": "securestring"},
    "PICKIT_P4B_CURATOR_PASSWORD": {"type": "securestring"},
    "PICKIT_MS_FREE_PRO_CLIENT_ID": {"type": "securestring"},
    "PICKIT_MS_FREE_PRO_CLIENT_SECRET": {"type": "securestring"},
    "PICKIT_CSP_APP_SECRET": {"type": "securestring"},
    "NODE_ENV": {"type": "securestring"},
    "PICKIT_HUBSPOT_API_KEY": {"type": "securestring"},
    "PICKIT_HUBSPOT_HUB_ID": {"type": "securestring"},
    "PICKIT_CSP_CUSTOMER_ADMIN_SECRET": {"type": "securestring"}
  },
  "variables": {
    "templateBaseUrl": "https://bitbucket.org/jalegre39/phme-azure-template/raw/HEAD/",
    "locationMap": {
        "ResourceGroup":"[resourceGroup().location]",
        "West US":"[parameters('location')]",
        "East US":"[parameters('location')]",
        "East US 2":"[parameters('location')]",
        "Central US":"[parameters('location')]",
        "South Central US":"[parameters('location')]",
        "North Central US":"[parameters('location')]",
        "East Asia":"[parameters('location')]",
        "Southeast Asia":"[parameters('location')]",
        "West Europe":"[parameters('location')]",
        "North Europe":"[parameters('location')]",
        "sharedTemplateUri":"https://bitbucket.org/jalegre39/phme-azure-template/raw/HEAD/shared-template.json",
        "websTemplateUri":"https://bitbucket.org/jalegre39/phme-azure-template/raw/HEAD/webs-template.json",
        "databaseTemplateUri":"https://bitbucket.org/jalegre39/phme-azure-template/raw/HEAD/db-template.json",
        "elasticsearchTemplateUri":"",
        "workerTemplateUri":"https://bitbucket.org/jalegre39/phme-azure-template/raw/HEAD/worker.json"
    },
    "location":"[variables('locationMap')[parameters('location')]]",
    "storageAccountPrefix": "[concat('pivhdss', parameters('env'))]",
    "storageAccountNameShared": "[concat(variables('storageAccountPrefix'), 's', uniqueString(resourceGroup().id, deployment().name))]",
    "masterNodesIpPrefix": "10.0.1.1",
    "networkSettings": {
      "virtualNetworkName": "[parameters('virtualNetworkName')]",
      "addressPrefix": "10.0.0.0/16",
      "subnet": {
        "master": {
          "name": "searchmaster",
          "prefix": "10.0.1.0/24",
          "vnet": "[parameters('virtualNetworkName')]"
        },
        "data": {
          "name": "searchdata",
          "prefix": "10.0.2.0/24",
          "vnet": "[parameters('virtualNetworkName')]"
        }
      }
    },
    "esSettings": {
      "clusterName": "[parameters('esClusterName')]",
      "version": "[parameters('esVersion')]",
      "discoveryHosts": "[concat(variables('masterNodesIpPrefix'), '-3')]",
      "blobStorageKey": "[parameters('elasticBlobStorageKey')]"
    },
    "sharedTemplateUrl": "[concat(variables('templateBaseUrl'), 'shared-template.json')]",
    "sharedESTemplateUrl": "[concat(variables('templateBaseUrl'), 'es-shared-resources.json')]",
    "masterTemplateUrl": "[concat(variables('templateBaseUrl'), 'master-nodes-resources.json')]",
    "redisTemplateUrl": "[concat(variables('templateBaseUrl'), 'redis-resources.json')]",
    "databaseTemplateUri": "[concat(variables('templateBaseUrl'), 'db-template.json')]",
    "websTemplateUri": "[concat(variables('templateBaseUrl'), 'webs-template.json')]",
    "workerTemplateUri": "[concat(variables('templateBaseUrl'), 'worker.json')]",
    "clientTemplates": [
      "empty-resources.json",
      "client-nodes-resources.json"
    ],
    "clientTemplateUrl": "[concat(variables('templateBaseUrl'), variables('clientTemplates')[mod(add(parameters('vmClientNodeCount'),2),add(parameters('vmClientNodeCount'),1))])]",
    "lbBackEndPoolsAdded": {
      "backendPools": [
        {
          "id": "[concat(resourceId('Microsoft.Network/loadBalancers','loadBalancer'),'/backendAddressPools/LBBE')]"
        }
      ]
    },
    "lbBackendPoolsRemoved": {
      "backendPools": []
    },
    "dataLBSettingOptions": [
      "[variables('lbBackEndPoolsAdded')]",
      "[variables('lbBackendPoolsRemoved')]"
    ],
    "dataLBSettings": "[variables('dataLBSettingOptions')[mod(add(parameters('vmClientNodeCount'),2),add(parameters('vmClientNodeCount'),1))]]",
    "jumpboxTemplateYes": "jumpbox-resources.json",
    "jumpboxTemplateNo": "empty-resources.json",
    "jumpboxTemplateUrl": "[concat(variables('templateBaseUrl'), variables(concat('jumpboxTemplate',parameters('jumpbox'))))]",
    "marvelParam": {
      "ubuntu": {
        "yes":" -m",
        "no":""
      },
      "windows": {
        "yes":" -installMarvel",
        "no":""
      }
    },
    "marvelParamValue": "[variables('marvelParam')[parameters('OS')][parameters('marvel')]]",
    "kibanaTemplates": {
      "yes": "kibana-resources.json",
      "no": "empty-resources.json"
    },
    "kibanaTemplateUrl":"[concat(variables('templateBaseUrl'), variables('kibanaTemplates')[parameters('kibana')], '')]",
    "scriptParams": [
      "[concat('version=', parameters('esVersion'), ';')]",
      "[concat('clusterName=', parameters('esClusterName'), ';')]",
      "[concat('discoveryHosts=', variables('masterNodesIpPrefix'), '-3', ';')]",
      "[concat('installMarvel=', parameters('marvel'), ';')]"
    ],
    "scriptParamString":"[concat(variables('scriptParams')[0], variables('scriptParams')[1], variables('scriptParams')[2], variables('scriptParams')[3] )]",
    "ubuntuScripts": [
      "[concat(variables('templateBaseUrl'), 'elasticsearch-ubuntu-install.sh')]",
      "[concat(variables('templateBaseUrl'), 'kibana-install.sh')]",
      "https://raw.githubusercontent.com/Azure/azure-quickstart-templates/master/shared_scripts/ubuntu/vm-disk-utils-0.1.sh"
    ],
    "windowsScripts": [
      "[concat(variables('templateBaseUrl'), 'elasticsearch-windows-install.ps1')]"
    ],
    "ubuntuSettings": {
      "imageReference":{
        "publisher": "Canonical",
        "offer": "UbuntuServer",
        "sku": "16.04.0-LTS",
        "version": "latest"
      },
      "managementPort":"22",
      "extentionSettings":{
        "master": {
            "publisher": "Microsoft.OSTCExtensions",
            "type": "CustomScriptForLinux",
            "typeHandlerVersion": "1.2",
            "settings": {
              "fileUris": "[variables('ubuntuScripts')]",
              "commandToExecute": "[concat('bash elasticsearch-ubuntu-install.sh -xn ', variables('esSettings').clusterName, ' -v ', variables('esSettings').version, ' -d ', variables('esSettings').discoveryHosts, variables('marvelParamValue'))]"
            }
          },
        "client": {
            "publisher": "Microsoft.OSTCExtensions",
            "type": "CustomScriptForLinux",
            "typeHandlerVersion": "1.2",
            "settings": {
              "fileUris": "[variables('ubuntuScripts')]",
              "commandToExecute": "[concat('bash elasticsearch-ubuntu-install.sh -yn ', variables('esSettings').clusterName, ' -v ', variables('esSettings').version, ' -d ', variables('esSettings').discoveryHosts, variables('marvelParamValue'))]"
            }
          },
        "data": {
          "publisher": "Microsoft.OSTCExtensions",
          "type": "CustomScriptForLinux",
          "typeHandlerVersion": "1.2",
          "settings": {
            "fileUris": "[variables('ubuntuScripts')]",
            "commandToExecute": "[concat('bash elasticsearch-ubuntu-install.sh -zn ', variables('esSettings').clusterName, ' -v ', variables('esSettings').version, ' -d ', variables('esSettings').discoveryHosts, variables('marvelParamValue'))]"
          }
        },
        "kibana": {
          "publisher": "Microsoft.OSTCExtensions",
          "type": "CustomScriptForLinux",
          "typeHandlerVersion": "1.2",
          "settings": {
            "fileUris": "[variables('ubuntuScripts')]",
            "commandToExecute": "[concat('bash kibana-install.sh')]"
          }
        },
        "pickit_web": {
          "publisher": "Microsoft.OSTCExtensions",
          "type": "CustomScriptForLinux",
          "typeHandlerVersion": "1.5",
          "autoUpgradeMinorVersion": false,
          "settings": {
            "fileUris": [
              "[concat(variables('templateBaseUrl'), 'pickit_web.sh')]"
            ]
          },
          "protectedSettings": {
            "commandToExecute": "[concat('bash pickit_web.sh ', '--newrelic_license_key=\"', parameters('NEWRELIC_LICENSE_KEY'), '\" --git_private_key=\"', parameters('GIT_PRIVATE_KEY'), '\" --git_public_key=\"', parameters('GIT_PUBLIC_KEY'), '\" --pickit_postgresql_user=\"',parameters('PICKIT_POSTGRESQL_USER'), '\" --pickit_postgresql_database=\"',parameters('PICKIT_POSTGRESQL_DATABASE'),'\" --pickit_postgresql_host=\"',parameters('PICKIT_POSTGRESQL_HOST'),'\" --pickit_postgresql_port=\"',parameters('PICKIT_POSTGRESQL_PORT'),'\" --pickit_postgresql_password=\"',parameters('PICKIT_POSTGRESQL_PASSWORD'),'\" --pickit_postgresql_replica_user=\"',parameters('PICKIT_POSTGRESQL_REPLICA_USER'),'\" --pickit_postgresql_replica_database=\"',parameters('PICKIT_POSTGRESQL_REPLICA_DATABASE'),'\" --pickit_postgresql_replica_host=\"',parameters('PICKIT_POSTGRESQL_REPLICA_HOST'),'\" --pickit_postgresql_replica_port=\"',parameters('PICKIT_POSTGRESQL_REPLICA_PORT'),'\" --pickit_postgresql_replica_password=\"',parameters('PICKIT_POSTGRESQL_REPLICA_PASSWORD'),'\" --pickit_azure_account_name=\"',parameters('PICKIT_AZURE_ACCOUNT_NAME'),'\" --pickit_azure_account_key=\"',parameters('PICKIT_AZURE_ACCOUNT_KEY'),'\" --pickit_azure_public_container=\"',parameters('PICKIT_AZURE_PUBLIC_CONTAINER'),'\" --pickit_azure_private_container=\"',parameters('PICKIT_AZURE_PRIVATE_CONTAINER'),'\" --pickit_email_host_user=\"',parameters('PICKIT_EMAIL_HOST_USER'),'\" --pickit_email_host_password=\"',parameters('PICKIT_EMAIL_HOST_PASSWORD'),'\" --pickit_email_port=\"',parameters('PICKIT_EMAIL_PORT'),'\" --pickit_twitter_consumer_key=\"',parameters('PICKIT_TWITTER_CONSUMER_KEY'),'\" --pickit_twitter_consumer_secret=\"',parameters('PICKIT_TWITTER_CONSUMER_SECRET'),'\" --pickit_facebook_app_id=\"',parameters('PICKIT_FACEBOOK_APP_ID'),'\" --pickit_facebook_api_secret=\"',parameters('PICKIT_FACEBOOK_API_SECRET'),'\" --pickit_linkedin_consumer_key=\"',parameters('PICKIT_LINKEDIN_CONSUMER_KEY'),'\" --pickit_linkedin_consumer_secret=\"',parameters('PICKIT_LINKEDIN_CONSUMER_SECRET'),'\" --pickit_google_oauth2_client_id=\"',parameters('PICKIT_GOOGLE_OAUTH2_CLIENT_ID'),'\" --pickit_google_oauth2_client_secret=\"',parameters('PICKIT_GOOGLE_OAUTH2_CLIENT_SECRET'),'\" --pickit_paypal_application_id=\"',parameters('PICKIT_PAYPAL_APPLICATION_ID'),'\" --pickit_paypal_userid=\"',parameters('PICKIT_PAYPAL_USERID'),'\" --pickit_paypal_password=',parameters('PICKIT_PAYPAL_PASSWORD'),'\" --pickit_paypal_signature=',parameters('PICKIT_PAYPAL_SIGNATURE'),'\" --pickit_payex_encryption_key=\"',parameters('PICKIT_PAYEX_ENCRYPTION_KEY'),'\" --pickit_payex_merchant_account=\"',parameters('PICKIT_PAYEX_MERCHANT_ACCOUNT'),'\" --pickit_celery_broker_url=\"',parameters('PICKIT_CELERY_BROKER_URL'),'\" --pickit_crowd_flower_api_key_local=\"',parameters('PICKIT_CROWD_FLOWER_API_KEY_LOCAL'),'\" --pickit_crowd_flower_api_key=\"',parameters('PICKIT_CROWD_FLOWER_API_KEY'),'\" --pickit_redis_url=\"',parameters('PICKIT_REDIS_URL'),'\" --pickit_mixpanel_token=\"',parameters('PICKIT_MIXPANEL_TOKEN'),'\" --pickit_powerpoint_user=\"',parameters('PICKIT_POWERPOINT_USER'),'\" --pickit_orbeus_api_key=\"',parameters('PICKIT_ORBEUS_API_KEY'),'\" --pickit_orbeus_api_secret=\"',parameters('PICKIT_ORBEUS_API_SECRET'),'\" --pickit_shutterstock_api_client=\"',parameters('PICKIT_SHUTTERSTOCK_API_CLIENT'),'\" --pickit_shutterstock_api_secret=\"',parameters('PICKIT_SHUTTERSTOCK_API_SECRET'),'\" --pickit_stripe_public_key_sandbox=\"',parameters('PICKIT_STRIPE_PUBLIC_KEY_SANDBOX'),'\" --pickit_stripe_secret_key_sandbox=\"',parameters('PICKIT_STRIPE_SECRET_KEY_SANDBOX'),'\" --pickit_stripe_public_key=\"',parameters('PICKIT_STRIPE_PUBLIC_KEY'),'\" --pickit_stripe_secret_key=\"',parameters('PICKIT_STRIPE_SECRET_KEY'),'\" --pickit_mobile_service_token=\"',parameters('PICKIT_MOBILE_SERVICE_TOKEN'),'\" --pickit_bing_translate_client_id=\"',parameters('PICKIT_BING_TRANSLATE_CLIENT_ID'),'\" --pickit_bing_translate_client_secret=\"',parameters('PICKIT_BING_TRANSLATE_CLIENT_SECRET'),'\" --pickit_new_relic_account_id=\"',parameters('PICKIT_NEW_RELIC_ACCOUNT_ID'),'\" --pickit_new_relic_insights_key=\"',parameters('PICKIT_NEW_RELIC_INSIGHTS_KEY'),'\" --pickit_azure_moderation_subscription_id=\"',parameters('PICKIT_AZURE_MODERATION_SUBSCRIPTION_ID'),'\" --pickit_vatlayer_access_key=\"',parameters('PICKIT_VATLAYER_ACCESS_KEY'),'\" --pickit_vatlayer_access_dev_key=\"',parameters('PICKIT_VATLAYER_ACCESS_DEV_KEY'),'\" --pickit_vision_api_key=\"',parameters('PICKIT_VISION_API_KEY'),'\" --pickit_cms_postgresql_user=\"',parameters('PICKIT_CMS_POSTGRESQL_USER'),'\" --pickit_cms_postgresql_database=\"',parameters('PICKIT_CMS_POSTGRESQL_DATABASE'),'\" --pickit_cms_postgresql_host=\"',parameters('PICKIT_CMS_POSTGRESQL_HOST'),'\" --pickit_cms_postgresql_port=\"',parameters('PICKIT_CMS_POSTGRESQL_PORT'),'\" --pickit_cms_postgresql_password=\"',parameters('PICKIT_CMS_POSTGRESQL_PASSWORD'),'\" --pickit_cms_postgresql_replica_user=\"',parameters('PICKIT_CMS_POSTGRESQL_REPLICA_USER'),'\" --pickit_cms_postgresql_replica_database=\"',parameters('PICKIT_CMS_POSTGRESQL_REPLICA_DATABASE'),'\" --pickit_cms_postgresql_replica_host=\"',parameters('PICKIT_CMS_POSTGRESQL_REPLICA_HOST'),'\" --pickit_cms_postgresql_replica_port=\"',parameters('PICKIT_CMS_POSTGRESQL_REPLICA_PORT'),'\" --pickit_cms_postgresql_replica_password=\"',parameters('PICKIT_CMS_POSTGRESQL_REPLICA_PASSWORD'), '\" --pickit_env=\"',parameters('PICKIT_ENV'),'\" --django_settings_module=\"',parameters('DJANGO_SETTINGS_MODULE'),'\" --clarifai_app_id=\"',parameters('CLARIFAI_APP_ID'),'\" --clarifai_app_secret=\"',parameters('CLARIFAI_APP_SECRET'),'\" --ssl_certificate_crt=\"', parameters('SSL_CERTIFICATE_CRT'), '\" --ssl_certificate_key=\"', parameters('SSL_CERTIFICATE_KEY'), '\" --pickit_insights_key=\"', parameters('PICKIT_INSIGHTS_KEY'), '\" --fortnox_secret_key=\"', parameters('FORTNOX_SECRET_KEY'), '\" --fortnox_access_token=\"', parameters('FORTNOX_ACCESS_TOKEN'), '\" --pickit_p4b_ms_graph_client_id=\"', parameters('PICKIT_P4B_MS_GRAPH_CLIENT_ID'), '\" --pickit_p4b_ms_graph_client_secret=\"', parameters('PICKIT_P4B_MS_GRAPH_CLIENT_SECRET'), '\" --pickit_p4b_ms_graph_redirect_uri=\"', parameters('PICKIT_P4B_MS_GRAPH_REDIRECT_URI'), '\" --pickit_p4b_curator_password=\"', parameters('PICKIT_P4B_CURATOR_PASSWORD'), '\" --pickit_ms_free_pro_client_id=\"', parameters('PICKIT_MS_FREE_PRO_CLIENT_ID'), '\" --pickit_ms_free_pro_client_secret=\"', parameters('PICKIT_MS_FREE_PRO_CLIENT_SECRET'), '\" --pickit_csp_app_secret=\"', parameters('PICKIT_CSP_APP_SECRET'), '\" --node_env=\"', parameters('NODE_ENV'), '\" --pickit_hubspot_api_key=\"', parameters('PICKIT_HUBSPOT_API_KEY'), '\" --pickit_hubspot_hub_id=\"', parameters('PICKIT_HUBSPOT_HUB_ID'), '\" --pickit_csp_customer_admin_secret=\"', parameters('PICKIT_CSP_CUSTOMER_ADMIN_SECRET'), '\"')]"
          }
        }
      }
    },
    "windowsSettings": {
      "imageReference":{
        "publisher": "MicrosoftWindowsServer",
        "offer": "WindowsServer",
        "sku": "2012-R2-Datacenter",
        "version": "latest"
      },
      "managementPort":"3389",
      "extentionSettings":{
        "master": {
          "publisher": "Microsoft.Compute",
          "type": "CustomScriptExtension",
          "typeHandlerVersion": "1.4",
          "settings": {
            "fileUris": "[variables('windowsScripts')]",
            "commandToExecute": "[concat('powershell.exe -File elasticsearch-windows-install.ps1 -elasticSearchVersion ', variables('esSettings').version,' -elasticClusterName ', variables('esSettings').clusterName,' -discoveryEndpoints ', variables('esSettings').discoveryHosts, ' -masterOnlyNode -installMarvel')]"
          }
        },
        "client": {
          "publisher": "Microsoft.Compute",
          "type": "CustomScriptExtension",
          "typeHandlerVersion": "1.4",
          "settings": {
            "fileUris": "[variables('windowsScripts')]",
            "commandToExecute": "[concat('powershell.exe -File elasticsearch-windows-install.ps1 -elasticSearchVersion ', variables('esSettings').version,' -elasticClusterName ', variables('esSettings').clusterName,' -discoveryEndpoints ', variables('esSettings').discoveryHosts, ' -clientOnlyNode -installMarvel')]"
          }
        },
        "data": {
          "publisher": "Microsoft.Compute",
          "type": "CustomScriptExtension",
          "typeHandlerVersion": "1.4",
          "settings": {
            "fileUris": "[variables('windowsScripts')]",
            "commandToExecute": "[concat('powershell.exe -File elasticsearch-windows-install.ps1 -elasticSearchVersion ', variables('esSettings').version,' -elasticClusterName ', variables('esSettings').clusterName,' -discoveryEndpoints ', variables('esSettings').discoveryHosts, ' -dataOnlyNode -installMarvel')]"
          }
        }
      }
    },
    "osSettings": "[variables(concat(parameters('OS'), 'Settings'))]",
    "dataSkuSettings": {
      "Standard_D1": {
        "dataDisks":2,
        "nodesPerStorageAccount":6,
        "storageAccountType":"Standard_LRS"
      },
      "Standard_D2": {
        "dataDisks":4,
        "nodesPerStorageAccount":4,
        "storageAccountType":"Standard_LRS"
      },
      "Standard_D3": {
        "dataDisks":8,
        "nodesPerStorageAccount":3,
        "storageAccountType":"Standard_LRS"
      },
      "Standard_D4": {
        "dataDisks":16,
        "nodesPerStorageAccount":2,
        "storageAccountType":"Standard_LRS"
      },
      "Standard_DS1": {
        "dataDisks":2,
        "nodesPerStorageAccount":6,
        "storageAccountType":"Premium_LRS"
      },
      "Standard_DS2": {
        "dataDisks":4,
        "nodesPerStorageAccount":4,
        "storageAccountType":"Premium_LRS"
      },
      "Standard_DS3": {
        "dataDisks":8,
        "nodesPerStorageAccount":4,
        "storageAccountType":"Premium_LRS"
      },
      "Standard_DS4": {
        "dataDisks":16,
        "nodesPerStorageAccount":2,
        "storageAccountType":"Premium_LRS"
      },
      "Standard_DS13": {
        "dataDisks":16,
        "nodesPerStorageAccount":2,
        "storageAccountType":"Premium_LRS"
      },
      "Standard_A2": {
        "dataDisks":4,
        "nodesPerStorageAccount":6,
        "storageAccountType":"Standard_LRS"
      },
      "Standard_A3": {
        "dataDisks":8,
        "nodesPerStorageAccount":4,
        "storageAccountType":"Standard_LRS"
      },
      "Standard_A4": {
        "dataDisks":16,
        "nodesPerStorageAccount":2,
        "storageAccountType":"Standard_LRS"
      },
      "Standard_A7": {
        "dataDisks":16,
        "nodesPerStorageAccount":2,
        "storageAccountType":"Standard_LRS"
      }
    },
    "nodesPerStorageAccount":"[variables('dataSkuSettings')[parameters('vmSizeDataNodes')].nodesPerStorageAccount]",
    "storageBinPackMap": [
      "[div(sub(add(1, variables('nodesPerStorageAccount')), 1), variables('nodesPerStorageAccount'))]",
      "[div(sub(add(2, variables('nodesPerStorageAccount')), 1), variables('nodesPerStorageAccount'))]",
      "[div(sub(add(3, variables('nodesPerStorageAccount')), 1), variables('nodesPerStorageAccount'))]",
      "[div(sub(add(4, variables('nodesPerStorageAccount')), 1), variables('nodesPerStorageAccount'))]",
      "[div(sub(add(5, variables('nodesPerStorageAccount')), 1), variables('nodesPerStorageAccount'))]",
      "[div(sub(add(6, variables('nodesPerStorageAccount')), 1), variables('nodesPerStorageAccount'))]",
      "[div(sub(add(7, variables('nodesPerStorageAccount')), 1), variables('nodesPerStorageAccount'))]",
      "[div(sub(add(8, variables('nodesPerStorageAccount')), 1), variables('nodesPerStorageAccount'))]",
      "[div(sub(add(9, variables('nodesPerStorageAccount')), 1), variables('nodesPerStorageAccount'))]",
      "[div(sub(add(10, variables('nodesPerStorageAccount')), 1), variables('nodesPerStorageAccount'))]",
      "[div(sub(add(11, variables('nodesPerStorageAccount')), 1), variables('nodesPerStorageAccount'))]",
      "[div(sub(add(12, variables('nodesPerStorageAccount')), 1), variables('nodesPerStorageAccount'))]",
      "[div(sub(add(13, variables('nodesPerStorageAccount')), 1), variables('nodesPerStorageAccount'))]",
      "[div(sub(add(14, variables('nodesPerStorageAccount')), 1), variables('nodesPerStorageAccount'))]",
      "[div(sub(add(15, variables('nodesPerStorageAccount')), 1), variables('nodesPerStorageAccount'))]",
      "[div(sub(add(16, variables('nodesPerStorageAccount')), 1), variables('nodesPerStorageAccount'))]",
      "[div(sub(add(17, variables('nodesPerStorageAccount')), 1), variables('nodesPerStorageAccount'))]",
      "[div(sub(add(18, variables('nodesPerStorageAccount')), 1), variables('nodesPerStorageAccount'))]",
      "[div(sub(add(19, variables('nodesPerStorageAccount')), 1), variables('nodesPerStorageAccount'))]",
      "[div(sub(add(20, variables('nodesPerStorageAccount')), 1), variables('nodesPerStorageAccount'))]",
      "[div(sub(add(21, variables('nodesPerStorageAccount')), 1), variables('nodesPerStorageAccount'))]",
      "[div(sub(add(22, variables('nodesPerStorageAccount')), 1), variables('nodesPerStorageAccount'))]",
      "[div(sub(add(23, variables('nodesPerStorageAccount')), 1), variables('nodesPerStorageAccount'))]",
      "[div(sub(add(24, variables('nodesPerStorageAccount')), 1), variables('nodesPerStorageAccount'))]",
      "[div(sub(add(25, variables('nodesPerStorageAccount')), 1), variables('nodesPerStorageAccount'))]",
      "[div(sub(add(26, variables('nodesPerStorageAccount')), 1), variables('nodesPerStorageAccount'))]",
      "[div(sub(add(27, variables('nodesPerStorageAccount')), 1), variables('nodesPerStorageAccount'))]",
      "[div(sub(add(28, variables('nodesPerStorageAccount')), 1), variables('nodesPerStorageAccount'))]",
      "[div(sub(add(29, variables('nodesPerStorageAccount')), 1), variables('nodesPerStorageAccount'))]",
      "[div(sub(add(30, variables('nodesPerStorageAccount')), 1), variables('nodesPerStorageAccount'))]",
      "[div(sub(add(31, variables('nodesPerStorageAccount')), 1), variables('nodesPerStorageAccount'))]",
      "[div(sub(add(32, variables('nodesPerStorageAccount')), 1), variables('nodesPerStorageAccount'))]",
      "[div(sub(add(33, variables('nodesPerStorageAccount')), 1), variables('nodesPerStorageAccount'))]",
      "[div(sub(add(34, variables('nodesPerStorageAccount')), 1), variables('nodesPerStorageAccount'))]",
      "[div(sub(add(35, variables('nodesPerStorageAccount')), 1), variables('nodesPerStorageAccount'))]",
      "[div(sub(add(36, variables('nodesPerStorageAccount')), 1), variables('nodesPerStorageAccount'))]",
      "[div(sub(add(37, variables('nodesPerStorageAccount')), 1), variables('nodesPerStorageAccount'))]",
      "[div(sub(add(38, variables('nodesPerStorageAccount')), 1), variables('nodesPerStorageAccount'))]",
      "[div(sub(add(39, variables('nodesPerStorageAccount')), 1), variables('nodesPerStorageAccount'))]",
      "[div(sub(add(40, variables('nodesPerStorageAccount')), 1), variables('nodesPerStorageAccount'))]",
      "[div(sub(add(51, variables('nodesPerStorageAccount')), 1), variables('nodesPerStorageAccount'))]",
      "[div(sub(add(52, variables('nodesPerStorageAccount')), 1), variables('nodesPerStorageAccount'))]",
      "[div(sub(add(53, variables('nodesPerStorageAccount')), 1), variables('nodesPerStorageAccount'))]",
      "[div(sub(add(54, variables('nodesPerStorageAccount')), 1), variables('nodesPerStorageAccount'))]",
      "[div(sub(add(55, variables('nodesPerStorageAccount')), 1), variables('nodesPerStorageAccount'))]",
      "[div(sub(add(56, variables('nodesPerStorageAccount')), 1), variables('nodesPerStorageAccount'))]",
      "[div(sub(add(57, variables('nodesPerStorageAccount')), 1), variables('nodesPerStorageAccount'))]",
      "[div(sub(add(58, variables('nodesPerStorageAccount')), 1), variables('nodesPerStorageAccount'))]",
      "[div(sub(add(59, variables('nodesPerStorageAccount')), 1), variables('nodesPerStorageAccount'))]",
      "[div(sub(add(60, variables('nodesPerStorageAccount')), 1), variables('nodesPerStorageAccount'))]"
    ],
    "dataNodeStorageSettings": {
      "count":"[div(sub(add(parameters('vmDataNodeCount'), variables('nodesPerStorageAccount')), 1), variables('nodesPerStorageAccount'))]",
      "mapping":"[variables('storageBinPackMap')]",
      "accountType":"[variables('dataSkuSettings')[parameters('vmSizeDataNodes')].storageAccountType]",
      "prefix":"[concat(variables('storageAccountPrefix'), 'd', uniqueString(resourceGroup().id, deployment().name))]"
    },
    "dataTemplateUrl": "[concat(variables('templateBaseUrl'), 'data-nodes-', string(variables('dataSkuSettings')[parameters('vmSizeDataNodes')].dataDisks), 'disk-resources.json')]"
  },
  "resources": [
    {
      "name":"shared",
      "type":"Microsoft.Resources/deployments",
      "apiVersion":"2015-01-01",
      "properties":{
        "mode":"Incremental",
        "templateLink":{
         "uri":"[variables('sharedTemplateUrl')]" ,
          "contentVersion":"1.0.0.0"
        },
        "parameters":{
          "storagePhotoAccountName": {
            "value": "[parameters('storagePhotoAccountName')]"
          },
          "storageBackupAccountName": {
            "value": "[parameters('storageBackupAccountName')]"
          },
          "virtualNetworkName": {
            "value": "[parameters('virtualNetworkName')]"
          },
          "location": {
            "value":"[parameters('location')]"
          }
        }
      }
    },
   {
      "name":"webs",
      "type":"Microsoft.Resources/deployments",
      "apiVersion":"2015-01-01",
      "dependsOn":[
        "Microsoft.Resources/deployments/shared"
      ],
      "properties":{
        "mode":"Incremental",
        "templateLink":{
         "uri":"[variables('websTemplateUri')]" ,
          "contentVersion":"1.0.0.0"
        },
        "parameters":{
          "resourceLocation":{
            "value":"[parameters('location')]"
          },
          "vmssName":{
            "value":"[concat('web-', parameters('locationCode'), parameters('platformVersion'), '-', parameters('env'))]"
          },
          "virtualNetworkName":{
            "value":"[parameters('virtualNetworkName')]"
          },
          "instanceCount":{
            "value":"[parameters('number_webs')]"
          },
          "adminUsername":{
            "value":"[parameters('adminusername')]"
          },
          "adminPassword":{
            "value":"[parameters('adminpassword')]"
          },
          "web_image_uri": {
            "value":"[parameters('web_image_uri')]"
          },
          "vmSku": {
            "value": "[parameters('vmSizeWebs')]"
          },
          "env": {
            "value": "[parameters('env')]"
          },
          "ubuntuOSVersion": {
            "value": "[variables('ubuntuSettings').imageReference.sku]"
          },
          "osSettings": {
            "value": "[variables('ubuntuSettings')]"
          },
          "vhd_storage_account": {
            "value": "[concat('pivhd', parameters('env'), parameters('locationCode'))]"
          }
        }
      }
    }
  ]
}
